<Pipeline system="ODI" name="stk" poll="0.10" maxActive="0">
  <Description>
      Make a dither stack from a list of OTAs
  </Description>
  <Directories root="/shared/odipl/ODI/NHPPS/examples/data/ODI/ODI_STK" trig="/shared/odipl/ODI/NHPPS/examples/data/ODI/dec01" input="/shared/odipl/ODI/NHPPS/examples/data/ODI/ODI_STK" output="/shared/odipl/ODI/NHPPS/examples/data/ODI/ODI_STK" data="/shared/odipl/ODI/NHPPS/examples/data/ODI/ODI_STK" obs="/shared/odipl/ODI/NHPPS/examples/data/ODI/ODI_STK/obs" error="/shared/odipl/ODI/NHPPS/examples/data/ODI/ODI_STK/err"/>
  <ExitCodes id="PROCESSING" code="2" flag="p" severity="PROC" desc="normal processing"/>
  <ExitCodes id="COMPLETED" code="3" flag="cd" severity="OK" desc="normal completion"/>
  <ExitCodes id="WAITING" code="4" flag="w" severity="OK" desc="waiting for triggers"/>
  <ExitCodes id="ERROR" code="5" flag="e" severity="ERROR" desc="nonfatal error"/>
  <ExitCodes id="NOPIPE" code="6" flag="t" severity="HALT" desc="subpipeline not available"/>
  <ExitCodes id="NODATA" code="7" flag="n" severity="WARN" desc="no data, allowed"/>
  <ExitCodes id="CLFATAL" code="11" severity="FATAL" desc="IRAF CL fatal error, processing halted"/>
  <ExitCodes id="FATAL" code="12" flag="f" severity="FATAL" desc="fatal error, processing halted"/>
  <ExitCodes id="ENODATA" code="13" severity="ERROR" desc="no data, allowed but serious"/>
  <ExitCodes id="HNODATA" code="14" severity="HALT" desc="no data, processing halted"/>
  <ExitCodes id="HALT" code="15" flag="h" severity="HALT" desc="generic processing halt"/>
  <ExitCodes id="TIMEOUT" code="16" flag="x" severity="HALT" desc="module timeout"/>
  <Module name="stkstart" type="StartPipe" maxActive="0" isActive="True">
    <Trigger conditional="AND">
      <FileRequirement directory="/shared/odipl/ODI/NHPPS/examples/data/ODI/dec01" fnPattern="*.stktrig"/>
    </Trigger>
    <MaxExec time="0:1:0:0" status="TIMEOUT"/>
    <MinDisk space="0k" status="0"/>
    <PreProcAction>
      <OSFUpdate argv="stkstart w"/>
      <RenameTrigger argv="$EVENT_NAME.stktrig $EVENT_NAME.stkproc"/>
    </PreProcAction>
    <ProcAction>
      <Foreign argv="start.cl datadir mkdir ignore"/>
    </ProcAction>
    <PostProcAction>
      <ExitCode val="0"/>
      <OSFUpdate argv="stkstart f:FATAL"/>
      <RenameTrigger argv="$EVENT_NAME.stkproc $EVENT_NAME.stkerr"/>
    </PostProcAction>
    <PostProcAction>
      <ExitCode val="WARN"/>
      <OSFUpdate argv="stkstart p"/>
      <RemoveTrigger argv="$EVENT_NAME.stkproc"/>
    </PostProcAction>
    <PostProcAction>
      <ExitCode val="COMPLETED"/>
      <OSFUpdate argv="stkstart p"/>
      <RemoveTrigger argv="$EVENT_NAME.stkproc"/>
    </PostProcAction>
    <PostProcAction>
      <ExitCode val="1"/>
      <OSFUpdate argv="stkstart f:FATAL"/>
      <RenameTrigger argv="$EVENT_NAME.stkproc $EVENT_NAME.stkerr"/>
    </PostProcAction>
    <PostProcAction>
      <ExitCode val="DEFAULT"/>
      <OSFUpdate argv="stkstart f"/>
      <RenameTrigger argv="$EVENT_NAME.stkproc $EVENT_NAME.stkerr"/>
    </PostProcAction>
  </Module>
  <Module name="stk2esk" type="False" maxActive="0" isActive="True">
    <Trigger conditional="AND">
      <OSFRequirement argv="stkstart == p"/>
      <OSFRequirement argv="stk2esk == _"/>
    </Trigger>
    <MaxExec time="0:1:0:0" status="TIMEOUT"/>
    <MinDisk space="0k" status="0"/>
    <PreProcAction>
      <OSFUpdate argv="stk2esk p"/>
    </PreProcAction>
    <ProcAction>
      <Foreign argv="stk2esk"/>
    </ProcAction>
    <PostProcAction>
      <ExitCode val="NODATA"/>
      <OSFUpdate argv="stk2esk n"/>
    </PostProcAction>
    <PostProcAction>
      <ExitCode val="ERROR"/>
      <OSFUpdate argv="stk2esk e"/>
    </PostProcAction>
    <PostProcAction>
      <ExitCode val="TIMEOUT"/>
      <OSFUpdate argv="stk2esk x"/>
    </PostProcAction>
    <PostProcAction>
      <ExitCode val="0"/>
      <OSFUpdate argv="stk2esk f:FATAL"/>
    </PostProcAction>
    <PostProcAction>
      <ExitCode val="1"/>
      <OSFUpdate argv="stk2esk f:FATAL"/>
    </PostProcAction>
    <PostProcAction>
      <ExitCode val="COMPLETED"/>
      <OSFUpdate argv="stk2esk c"/>
    </PostProcAction>
    <PostProcAction>
      <ExitCode val="DEFAULT"/>
      <OSFUpdate argv="stk2esk f"/>
    </PostProcAction>
    <PostProcAction>
      <ExitCode val="HALT"/>
      <OSFUpdate argv="stk2esk h"/>
    </PostProcAction>
    <PostProcAction>
      <ExitCode val="ENODATA"/>
      <OSFUpdate argv="stk2esk n"/>
    </PostProcAction>
    <PostProcAction>
      <ExitCode val="HNODATA"/>
      <OSFUpdate argv="stk2esk n"/>
    </PostProcAction>
  </Module>
  <Module name="stkCesk" type="CallPipe" maxActive="0" isActive="True">
    <Trigger conditional="AND">
      <OSFRequirement argv="stk2esk == c"/>
      <OSFRequirement argv="stkCesk == _"/>
    </Trigger>
    <MaxExec time="0:1:0:0" status="TIMEOUT"/>
    <MinDisk space="0k" status="0"/>
    <PreProcAction>
      <OSFUpdate argv="stkCesk p"/>
    </PreProcAction>
    <ProcAction>
      <Foreign argv="call.cl stk2esk.tmp split esk yes"/>
    </ProcAction>
    <PostProcAction>
      <ExitCode val="NODATA"/>
      <OSFUpdate argv="stkCesk n"/>
    </PostProcAction>
    <PostProcAction>
      <ExitCode val="ERROR"/>
      <OSFUpdate argv="stkCesk e"/>
    </PostProcAction>
    <PostProcAction>
      <ExitCode val="TIMEOUT"/>
      <OSFUpdate argv="stkCesk x"/>
    </PostProcAction>
    <PostProcAction>
      <ExitCode val="0"/>
      <OSFUpdate argv="stkCesk f:FATAL"/>
    </PostProcAction>
    <PostProcAction>
      <ExitCode val="1"/>
      <OSFUpdate argv="stkCesk f:FATAL"/>
    </PostProcAction>
    <PostProcAction>
      <ExitCode val="DEFAULT"/>
      <OSFUpdate argv="stkCesk c:COMPLETED"/>
      <OSFUpdate argv="stkResk w:WAITING"/>
      <OSFWait argv="stkResk w:$NCALL"/>
    </PostProcAction>
    <PostProcAction>
      <ExitCode val="NOPIPE"/>
      <OSFUpdate argv="stkCesk t"/>
    </PostProcAction>
    <PostProcAction>
      <ExitCode val="HALT"/>
      <OSFUpdate argv="stkCesk h"/>
    </PostProcAction>
    <PostProcAction>
      <ExitCode val="ENODATA"/>
      <OSFUpdate argv="stkCesk n"/>
    </PostProcAction>
    <PostProcAction>
      <ExitCode val="HNODATA"/>
      <OSFUpdate argv="stkCesk n"/>
    </PostProcAction>
  </Module>
  <Module name="stkResk" type="WaitPipe" maxActive="1" isActive="True">
    <Trigger conditional="AND">
      <FileRequirement directory="/shared/odipl/ODI/NHPPS/examples/data/ODI/dec01" fnPattern="*.eskrtntrig"/>
    </Trigger>
    <MaxExec time="0:1:0:0" status="TIMEOUT"/>
    <MinDisk space="0k" status="0"/>
    <PreProcAction>
      <RenameTrigger argv="$EVENT_NAME.eskrtntrig $EVENT_NAME.eskproc"/>
    </PreProcAction>
    <ProcAction>
      <Foreign argv="return.cl"/>
    </ProcAction>
    <PostProcAction>
      <ExitCode val="0"/>
      <OSFUpdate argv="stkResk f:FATAL"/>
    </PostProcAction>
    <PostProcAction>
      <ExitCode val="COMPLETED"/>
      <RemoveTrigger argv="$EVENT_NAME.eskproc"/>
      <OSFWait argv="stkResk c"/>
    </PostProcAction>
    <PostProcAction>
      <ExitCode val="1"/>
      <OSFUpdate argv="stkResk f:FATAL"/>
    </PostProcAction>
    <PostProcAction>
      <ExitCode val="DEFAULT"/>
      <OSFUpdate argv="stkResk f"/>
      <RenameTrigger argv="$EVENT_NAME.eskproc $EVENT_NAME.eskerr"/>
    </PostProcAction>
  </Module>
  <Module name="stkstack" type="False" maxActive="0" isActive="True">
    <Trigger conditional="AND">
      <OSFRequirement argv="stkResk == c"/>
      <OSFRequirement argv="stkstack == _"/>
    </Trigger>
    <MaxExec time="0:4:0:0" status="TIMEOUT"/>
    <MinDisk space="0k" status="0"/>
    <PreProcAction>
      <OSFUpdate argv="stkstack p"/>
    </PreProcAction>
    <ProcAction>
      <Foreign argv="stkstack"/>
    </ProcAction>
    <PostProcAction>
      <ExitCode val="NODATA"/>
      <OSFUpdate argv="stkstack n"/>
    </PostProcAction>
    <PostProcAction>
      <ExitCode val="ERROR"/>
      <OSFUpdate argv="stkstack e"/>
    </PostProcAction>
    <PostProcAction>
      <ExitCode val="TIMEOUT"/>
      <OSFUpdate argv="stkstack x"/>
    </PostProcAction>
    <PostProcAction>
      <ExitCode val="0"/>
      <OSFUpdate argv="stkstack f:FATAL"/>
    </PostProcAction>
    <PostProcAction>
      <ExitCode val="1"/>
      <OSFUpdate argv="stkstack f:FATAL"/>
    </PostProcAction>
    <PostProcAction>
      <ExitCode val="COMPLETED"/>
      <OSFUpdate argv="stkstack c"/>
    </PostProcAction>
    <PostProcAction>
      <ExitCode val="DEFAULT"/>
      <OSFUpdate argv="stkstack f"/>
    </PostProcAction>
    <PostProcAction>
      <ExitCode val="HALT"/>
      <OSFUpdate argv="stkstack h"/>
    </PostProcAction>
    <PostProcAction>
      <ExitCode val="ENODATA"/>
      <OSFUpdate argv="stkstack n"/>
    </PostProcAction>
    <PostProcAction>
      <ExitCode val="HNODATA"/>
      <OSFUpdate argv="stkstack n"/>
    </PostProcAction>
  </Module>
  <Module name="stkdone" type="DonePipe" maxActive="0" isActive="True">
    <Trigger conditional="AND">
      <OSFRequirement argv="stkstack == c"/>
      <OSFRequirement argv="stkdone == _"/>
    </Trigger>
    <MaxExec time="0:1:0:0" status="TIMEOUT"/>
    <MinDisk space="0k" status="0"/>
    <PreProcAction>
      <OSFUpdate argv="stkdone p"/>
    </PreProcAction>
    <ProcAction>
      <Foreign argv="done.cl"/>
    </ProcAction>
    <PostProcAction>
      <ExitCode val="0"/>
      <OSFUpdate argv="stkdone f:FATAL"/>
      <OSFUpdate argv="stkstart f:FATAL"/>
    </PostProcAction>
    <PostProcAction>
      <ExitCode val="COMPLETED"/>
      <OSFUpdate argv="stkstart c"/>
      <OSFUpdate argv="stkdone d"/>
      <OSFConditRemove/>
    </PostProcAction>
    <PostProcAction>
      <ExitCode val="1"/>
      <OSFUpdate argv="stkdone f:FATAL"/>
      <OSFUpdate argv="stkstart f:FATAL"/>
    </PostProcAction>
    <PostProcAction>
      <ExitCode val="DEFAULT"/>
      <OSFUpdate argv="stkstart f"/>
    </PostProcAction>
  </Module>
</Pipeline>
